<?xml version="1.0" standalone="no"?>
<!DOCTYPE svg PUBLIC "-//W3C//DTD SVG 20010904//EN"
 "http://www.w3.org/TR/2001/REC-SVG-20010904/DTD/svg10.dtd">
<svg version="1.0" xmlns="http://www.w3.org/2000/svg"
 width="16.000000pt" height="16.000000pt" viewBox="0 0 16.000000 16.000000"
 preserveAspectRatio="xMidYMid meet">
<metadata>
Created by potrace 1.11, written by Peter Selinger 2001-2013
</metadata>
<g transform="translate(0.000000,16.000000) scale(0.006250,-0.006250)"
fill="#000000" stroke="none">
<path d="M125 2545 c-16 -7 -45 -27 -62 -44 -67 -63 -63 12 -62 -1225 0 -1089
0 -1122 19 -1160 25 -50 74 -93 119 -106 23 -6 440 -10 1151 -9 1099 0 1116 0
1157 20 46 23 83 66 101 118 9 26 12 321 12 1147 0 1234 4 1152 -67 1219 -21
20 -53 40 -73 45 -22 6 -450 10 -1150 9 -900 0 -1121 -3 -1145 -14z"/>
</g>
</svg>
